<?xml version="1.0" encoding="iso-8859-1"?>
<!-- Generator: Adobe Illustrator 19.0.0, SVG Export Plug-In . SVG Version: 6.00 Build 0)  -->
<svg version="1.1" id="Capa_1" xmlns="http://www.w3.org/2000/svg" xmlns:xlink="http://www.w3.org/1999/xlink" x="0px" y="0px"
	 viewBox="0 0 512 512" style="enable-background:new 0 0 512 512;" xml:space="preserve">
<path style="fill:#5A9F2E;" d="M256,37.5l-180,132v30l180,305c39.35,0,73.631-25.203,88.053-59.3l55.476-142.59l23.289-23.289
	C430.963,271.178,436,259.928,436,247.5v-78L256,37.5z"/>
<path style="fill:#87C241;" d="M324.486,445.2l43.148-142.59l18.114-23.289C392.083,271.178,396,259.928,396,247.5v-48H76v48
	c0,12.428,5.037,23.678,13.182,31.821l23.289,23.289l55.476,142.59c14.422,34.097,48.703,59.3,88.053,59.3
	C286.606,504.5,313.269,479.297,324.486,445.2z"/>
<g>
	<path style="fill:#5A9F2E;" d="M293.574,301.5v38c0,16.5,13.5,30,30,30v-98L293.574,301.5z"/>
	<path style="fill:#5A9F2E;" d="M188.426,271.5v98c16.5,0,30-13.5,30-30v-38L188.426,271.5z"/>
</g>
<path style="fill:#E52C20;" d="M436,169.5h-30L256,59.49l163.82,50.01C428.14,140.17,436,169.5,436,169.5z"/>
<g>
	<path style="fill:#F25031;" d="M419.82,109.5h-30L331,9.4c4.8-1.24,9.82-1.9,15-1.9c27.09,0,50.32,17.86,57.44,42.62
		C407.1,62.85,413.59,86.56,419.82,109.5z"/>
	<path style="fill:#F25031;" d="M389.82,109.5c8.32,30.67,16.18,60,16.18,60H76c0,0,7.86-29.33,16.18-60L256,59.489L389.82,109.5z"
		/>
</g>
<path style="fill:#FF7240;" d="M373.44,50.12c3.65,12.73,10.15,36.43,16.38,59.38H92.18c6.23-22.94,12.72-46.65,16.38-59.38
	C115.68,25.36,138.91,7.5,166,7.5c5.37,0,10.58,0.71,15.53,2.03L256,29.49l74.47-19.96c0.17-0.05,0.35-0.09,0.53-0.13
	C351.28,14.62,367.68,30.1,373.44,50.12z"/>
<path style="fill:#363636;" d="M365.5,204.009L293.574,301.5c56.333,0,102-45.667,102-102
	C385.105,199.5,375.007,201.08,365.5,204.009z"/>
<g>
	<path style="fill:#515151;" d="M365.5,204.009c-41.653,12.834-71.926,51.626-71.926,97.491
		C332.271,301.5,363.834,258.249,365.5,204.009z"/>
	<path style="fill:#515151;" d="M116,199.5c0,56.333,45.667,102,102,102C218,245.167,172.333,199.5,116,199.5z"/>
</g>
<path style="fill:#005807;" d="M265.999,377.002c-3.141,0-6.066-1.987-7.114-5.13L256,363.217l-2.885,8.655
	c-1.31,3.93-5.558,6.05-9.487,4.743c-3.93-1.31-6.053-5.558-4.744-9.487l10-30c1.021-3.063,3.887-5.128,7.115-5.128
	s6.094,2.065,7.115,5.128l10,30c1.31,3.93-0.814,8.178-4.744,9.487C267.585,376.877,266.785,377.002,265.999,377.002z"/>
<path style="fill:#5A9F2E;" d="M306,407h-12.5v-7.5c0-4.143-3.358-7.5-7.5-7.5s-7.5,3.357-7.5,7.5v7.5h-15v-7.5
	c0-4.143-3.358-7.5-7.5-7.5s-7.5,3.357-7.5,7.5v7.5h-15v-7.5c0-4.143-3.358-7.5-7.5-7.5s-7.5,3.357-7.5,7.5v7.5H206
	c-4.142,0-7.5,3.357-7.5,7.5s3.358,7.5,7.5,7.5h12.5v7.5c0,4.143,3.358,7.5,7.5,7.5s7.5-3.357,7.5-7.5V422h15v7.5
	c0,4.143,3.358,7.5,7.5,7.5s7.5-3.357,7.5-7.5V422h15v7.5c0,4.143,3.358,7.5,7.5,7.5s7.5-3.357,7.5-7.5V422H306
	c4.142,0,7.5-3.357,7.5-7.5S310.142,407,306,407z"/>
<path style="fill:#FF7240;" d="M504.5,177H7.5c-4.142,0-7.5-3.357-7.5-7.5s3.358-7.5,7.5-7.5h497c4.142,0,7.5,3.357,7.5,7.5
	S508.642,177,504.5,177z"/>
<path style="fill:#E52C20;" d="M435.432,147H76.569c-4.142,0-7.5-3.357-7.5-7.5s3.358-7.5,7.5-7.5h358.863
	c4.142,0,7.5,3.357,7.5,7.5S439.574,147,435.432,147z"/>
<g>
</g>
<g>
</g>
<g>
</g>
<g>
</g>
<g>
</g>
<g>
</g>
<g>
</g>
<g>
</g>
<g>
</g>
<g>
</g>
<g>
</g>
<g>
</g>
<g>
</g>
<g>
</g>
<g>
</g>
</svg>
